\relax 
\providecommand\zref@newlabel[2]{}
\providecommand\hyper@newdestlabel[2]{}
\providecommand\HyperFirstAtBeginDocument{\AtBeginDocument}
\HyperFirstAtBeginDocument{\ifx\hyper@anchor\@undefined
\global\let\oldcontentsline\contentsline
\gdef\contentsline#1#2#3#4{\oldcontentsline{#1}{#2}{#3}}
\global\let\oldnewlabel\newlabel
\gdef\newlabel#1#2{\newlabelxx{#1}#2}
\gdef\newlabelxx#1#2#3#4#5#6{\oldnewlabel{#1}{{#2}{#3}}}
\AtEndDocument{\ifx\hyper@anchor\@undefined
\let\contentsline\oldcontentsline
\let\newlabel\oldnewlabel
\fi}
\fi}
\global\let\hyper@last\relax 
\gdef\HyperFirstAtBeginDocument#1{#1}
\providecommand\HyField@AuxAddToFields[1]{}
\providecommand\HyField@AuxAddToCoFields[2]{}
\@writefile{toc}{\contentsline {section}{\numberline {1}Introduction}{1}{section.1}}
\@writefile{toc}{\contentsline {subsection}{\numberline {1.1}Background}{1}{subsection.1.1}}
\@writefile{toc}{\contentsline {subsection}{\numberline {1.2}Project Goals}{1}{subsection.1.2}}
\@writefile{toc}{\contentsline {section}{\numberline {2}Data}{1}{section.2}}
\@writefile{toc}{\contentsline {subsection}{\numberline {2.1}Dataset Overview}{2}{subsection.2.1}}
\@writefile{lof}{\contentsline {figure}{\numberline {1}{\ignorespaces Number of students and students school by term\relax }}{2}{figure.caption.1}}
\@writefile{lof}{\contentsline {figure}{\numberline {2}{\ignorespaces Completion rate by term\relax }}{3}{figure.caption.2}}
\@writefile{lof}{\contentsline {figure}{\numberline {3}{\ignorespaces Students by State of origin\relax }}{3}{figure.caption.3}}
\@writefile{lof}{\contentsline {figure}{\numberline {4}{\ignorespaces Students by County of origin (MA)\relax }}{4}{figure.caption.4}}
\@writefile{toc}{\contentsline {subsection}{\numberline {2.2}Data preprocessing}{4}{subsection.2.2}}
\@writefile{toc}{\contentsline {subsection}{\numberline {2.3}Feature Engineering}{5}{subsection.2.3}}
\@writefile{toc}{\contentsline {subsubsection}{\numberline {2.3.1}General}{5}{subsubsection.2.3.1}}
\@writefile{toc}{\contentsline {subsubsection}{\numberline {2.3.2}Student's Performance}{5}{subsubsection.2.3.2}}
\@writefile{toc}{\contentsline {subsubsection}{\numberline {2.3.3}Distance Matrix API}{6}{subsubsection.2.3.3}}
\@writefile{lof}{\contentsline {figure}{\numberline {5}{\ignorespaces \relax }}{6}{figure.caption.5}}
\@writefile{toc}{\contentsline {subsubsection}{\numberline {2.3.4}Geocoding API}{7}{subsubsection.2.3.4}}
\@writefile{toc}{\contentsline {subsubsection}{\numberline {2.3.5}American Community Survey API}{7}{subsubsection.2.3.5}}
\@writefile{lof}{\contentsline {figure}{\numberline {6}{\ignorespaces American Community Survey logo\relax }}{8}{figure.caption.6}}
\@writefile{toc}{\contentsline {subsubsection}{\numberline {2.3.6}College Scorecard Data}{8}{subsubsection.2.3.6}}
\@writefile{lof}{\contentsline {figure}{\numberline {7}{\ignorespaces US Department of Education logo\relax }}{9}{figure.caption.7}}
\@writefile{toc}{\contentsline {section}{\numberline {3}Machine Learning Algorithms}{9}{section.3}}
\@writefile{toc}{\contentsline {subsection}{\numberline {3.1}Adaboost}{9}{subsection.3.1}}
\@writefile{lof}{\contentsline {figure}{\numberline {8}{\ignorespaces Adaboost Overview\relax }}{10}{figure.caption.8}}
\@writefile{toc}{\contentsline {subsection}{\numberline {3.2}Random Forest}{10}{subsection.3.2}}
\@writefile{lof}{\contentsline {figure}{\numberline {9}{\ignorespaces Random Forest Overview\relax }}{10}{figure.caption.9}}
\@writefile{toc}{\contentsline {subsection}{\numberline {3.3}Support Vector Machine (SVM)}{11}{subsection.3.3}}
\@writefile{lof}{\contentsline {figure}{\numberline {10}{\ignorespaces SVM Overview\relax }}{11}{figure.caption.10}}
\@writefile{toc}{\contentsline {subsection}{\numberline {3.4}Logistic Regression}{11}{subsection.3.4}}
\@writefile{lof}{\contentsline {figure}{\numberline {11}{\ignorespaces Binary Logistic Regression Overview\relax }}{12}{figure.caption.11}}
\@writefile{toc}{\contentsline {section}{\numberline {4}Experimental Results}{12}{section.4}}
\@writefile{toc}{\contentsline {subsection}{\numberline {4.1}Experimental Setting}{12}{subsection.4.1}}
\@writefile{toc}{\contentsline {subsection}{\numberline {4.2}Results}{13}{subsection.4.2}}
\@writefile{lof}{\contentsline {figure}{\numberline {12}{\ignorespaces Model side by side comparison\relax }}{13}{figure.caption.12}}
\@writefile{toc}{\contentsline {subsection}{\numberline {4.3}Example - Random Forest}{13}{subsection.4.3}}
\@writefile{lof}{\contentsline {figure}{\numberline {13}{\ignorespaces New dataset vs. old dataset\relax }}{14}{figure.caption.13}}
\@writefile{lof}{\contentsline {figure}{\numberline {14}{\ignorespaces Error rate vs. Number of trees\relax }}{15}{figure.caption.14}}
\@writefile{lof}{\contentsline {figure}{\numberline {15}{\ignorespaces Confusion Matrix (Random Forest)\relax }}{16}{figure.caption.15}}
\@writefile{lof}{\contentsline {figure}{\numberline {16}{\ignorespaces ROC curve (Random Forest)\relax }}{16}{figure.caption.16}}
\@writefile{lof}{\contentsline {figure}{\numberline {17}{\ignorespaces Variable Importance\relax }}{17}{figure.caption.17}}
\@writefile{toc}{\contentsline {section}{\numberline {5}Conclusions}{17}{section.5}}
\@writefile{lof}{\contentsline {figure}{\numberline {18}{\ignorespaces Random forest vs. AdaBoost\relax }}{18}{figure.caption.18}}
\@writefile{lof}{\contentsline {figure}{\numberline {19}{\ignorespaces AdaBoost Comparison\relax }}{18}{figure.caption.19}}
\@writefile{toc}{\contentsline {subsection}{\numberline {5.1}Future Work}{19}{subsection.5.1}}
